{
    "componentChunkName": "component---src-templates-gallery-tsx",
    "path": "/gallery",
    "result": {"data":{"allStrapiGallery":{"nodes":[{"id":"f6d648f0-bfe3-57bf-83cd-5febdbb578de","Title":"Natáčení pozvánky","Cover":{"localFile":{"childImageSharp":{"gatsbyImageData":{"layout":"constrained","backgroundColor":"#484848","images":{"fallback":{"src":"/static/1d6a18b1decd089d5497d62a904fa093/d7df5/DSC_01816_5728ea22bf_9Gx037TJ1.jpg","srcSet":"/static/1d6a18b1decd089d5497d62a904fa093/3920c/DSC_01816_5728ea22bf_9Gx037TJ1.jpg 1414w,\n/static/1d6a18b1decd089d5497d62a904fa093/aaa89/DSC_01816_5728ea22bf_9Gx037TJ1.jpg 2829w,\n/static/1d6a18b1decd089d5497d62a904fa093/d7df5/DSC_01816_5728ea22bf_9Gx037TJ1.jpg 5657w","sizes":"(min-width: 5657px) 5657px, 100vw"},"sources":[{"srcSet":"/static/1d6a18b1decd089d5497d62a904fa093/396ea/DSC_01816_5728ea22bf_9Gx037TJ1.webp 1414w,\n/static/1d6a18b1decd089d5497d62a904fa093/dbe2f/DSC_01816_5728ea22bf_9Gx037TJ1.webp 2829w,\n/static/1d6a18b1decd089d5497d62a904fa093/6518a/DSC_01816_5728ea22bf_9Gx037TJ1.webp 5657w","type":"image/webp","sizes":"(min-width: 5657px) 5657px, 100vw"}]},"width":5657,"height":3771}}}},"localizations":{"data":[{"attributes":{"Title":"Invitation filming"}}]}}]}},"pageContext":{"lang":"cs"}},
    "staticQueryHashes": ["2841541544","3626529835","3831893114"]}