{
  "partners": [
    {
      "description": "support",
      "sponsors": [
        {
          "company_name": "Masarykova univerzita",
          "company_link": "https://www.muni.cz",
          "company_logo": "muni.png"
        },
        {
          "company_name": "Kentico",
          "company_link": "https://www.kentico.com",
          "company_logo": "kentico.png"
        },
        {
          "company_name": "Red Hat",
          "company_link": "https://www.redhat.com",
          "company_logo": "redhat.png"
        }
      ]
    },
    {
      "description": "prizes",
      "sponsors": [
        {
          "company_name": "Red Hat",
          "company_link": "https://www.redhat.com",
          "company_logo": "redhat.png"
        },
        {
          "company_name": "Kiwi",
          "company_link": "https://www.kiwi.com",
          "company_logo": "kiwi.png"
        },
        {
          "company_name": "Avast",
          "company_link": "https://www.avast.com",
          "company_logo": "avast.png"
        },
        {
          "company_name": "Ghostory",
          "company_link": "https://ghostory.rigidcoregames.com",
          "company_logo": "ghostory.png"
        },
        {
          "company_name": "Lingea",
          "company_link": "https://www.lingea.cz",
          "company_logo": "lingea.jpg"
        },
        {
          "company_name": "FotoŠkoda",
          "company_link": "https://www.fotoskoda.cz",
          "company_logo": "fotoskoda.png"
        },
        {
          "company_name": "MUNI Shop",
          "company_link": "https://munishop.muni.cz",
          "company_logo": "munishop.png"
        },
        {
          "company_name": "unIQue room",
          "company_link": "https://www.uniqueroom.cz",
          "company_logo": "uniqueroom.png"
        },
        {
          "company_name": "Chytrý Kvíz",
          "company_link": "https://www.chytrykviz.cz",
          "company_logo": "chytrykviz.png"
        },
        {
          "company_name": "Chytrá únikovka",
          "company_link": "https://www.chytraunikovka.cz",
          "company_logo": "chytraunikovka.png"
        },
        {
          "company_name": "TeaVoli",
          "company_link": "https://www.facebook.com/cajovnaTeaVoli",
          "company_logo": "teavoli.png"
        }
      ]
    },
    {
      "description": "media",
      "sponsors": [
        {
          "company_name": "Brno Daily",
          "company_link": "https://www.brnodaily.com",
          "company_logo": "brnodaily.png"
        },
        {
          "company_name": "Go To Brno",
          "company_link": "https://www.gotobrno.cz",
          "company_logo": "gotobrno.png"
        },
        {
          "company_name": "TV Guru",
          "company_link": "https://www.tvguru.cz",
          "company_logo": "tvguru.png"
        },
        {
          "company_name": "ESN MUNI",
          "company_link": "https://esn.muni.cz",
          "company_logo": "esn.png"
        },
        {
          "company_name": "Moviescreen",
          "company_link": "https://www.moviescreen.cz",
          "company_logo": "moviescreen.png"
        },
        {
          "company_name": "PLOTPOINT",
          "company_link": "https://www.plotpoint.sk",
          "company_logo": "plotpoint.png"
        }
      ]
    },
    {
      "description": "organization",
      "sponsors": [
        {
          "company_name": "LEMMA FI MU",
          "company_link": "https://lemma.fi.muni.cz",
          "company_logo": "lemma.png"
        },
        {
          "company_name": "Fakulta informatiky MU",
          "company_link": "https://www.fi.muni.cz",
          "company_logo": "fimuni.png"
        }
      ]
    }
  ]
}
