{
    "componentChunkName": "component---src-templates-articles-tsx",
    "path": "/articles",
    "result": {"data":{"allStrapiArticle":{"group":[{"nodes":[{"Link":"https://www.em.muni.cz/student/15186-zacina-dvaadvacaty-filmovy-festival-fakulty-informatiky-jak-to-vidis-ty","PostDate":"2022-05-20","Title":"Začíná dvaadvacátý Filmový festival fakulty informatiky. Jak to vidíš ty?","localizations":{"data":[]}},{"Link":"https://www.tvguru.cz/zmena-perspektivy-filmovy-festival-fakulty-informatiky-masarykovy-univerzity-predstavi-snimky-vsech-zanru/","PostDate":"2022-05-14","Title":"Změna perspektivy: Filmový festival Fakulty Informatiky Masarykovy univerzity představí snímky všech žánrů.","localizations":{"data":[]}},{"Link":"https://www.facebook.com/340947849430918/posts/pfbid0vsEApypKcrsPJVad6XHEt1aHL2mGrVevqBuwUgiWVqbMNxpFrnSAJvuFxBwJQDWzl/?d=n","PostDate":"2022-05-13","Title":"Pozri sa na to inak. 👀","localizations":{"data":[{"attributes":{"Title":"Look at it differently. 👀","Excerpt":""}}]}},{"Link":"https://www.muni.cz/kalendar/15419-22-rocnik-filmoveho-festivalu-fakulty-informatiky-masarykovy-univerzity-fffimu","PostDate":"2022-05-05","Title":"22. ročník Filmového festivalu Fakulty informatiky Masarykovy univerzity (FFFIMU)","localizations":{"data":[{"attributes":{"Title":"The 22nd Film festival of Faculty of Informatics of Masaryk University (FFFIMU)","Excerpt":"The 22nd Film festival of Faculty of Informatics of Masaryk University (FFFIMU) will take place on 20.5.2022 at 19.00. The festival will once again project short student films which will be then competing for the favour of the audience and valuable prices. The event will take place at both University Cinema Scala and Faculty of Informatics of Masaryk University."}}]}},{"Link":"https://www.kult.cz/filmovy-festival-nas-oslovi-z-jine-perspektivy","PostDate":"2022-04-26","Title":"Filmový festival nás osloví Z jiné perspektivy","localizations":{"data":[{"attributes":{"Title":"The Film Festival will appeal to us From a Different Perspective","Excerpt":null}}]}},{"Link":"https://plotpoint.sk/filmovy-festival-fakulty-informatiky-mu/","PostDate":"2022-04-22","Title":"FILMOVÝ FESTIVAL FAKULTY INFORMATIKY MU – JAK TO VIDÍTE VY?","localizations":{"data":[{"attributes":{"Title":"FILM FESTIVAL  OF THE FACULTY OF INFORMATICS MU – HOW DO YOU SEE IT?","Excerpt":null}}]}},{"Link":"https://www.tvguru.cz/blizi-se-filmovy-festival-fakulty-informatiky-masarykovy-univerzity-i-jeho-jiz-22-rocnik-bude-vyzarovat-kreativitou/","PostDate":"2022-04-18","Title":"Blíží se Filmový festival Fakulty informatiky Masarykovy univerzity. I jeho již 22. ročník bude vyzařovat kreativitou","localizations":{"data":[{"attributes":{"Title":"The Film Festival of the Faculty of Informatics of Masaryk University is approaching. Even his 22nd year will shine with creativity","Excerpt":null}}]}},{"Link":"https://www.tvguru.cz/22-filmovy-festival-fakulty-informatiky-masarykovy-univerzity-z-jine-perspektivy-aneb-jak-to-vidis-ty/","PostDate":"2022-03-31","Title":"22. Filmový festival Fakulty informatiky Masarykovy univerzity: Z jiné perspektivy aneb Jak to vidíš ty?","localizations":{"data":[{"attributes":{"Title":"22nd Film Festival of the Faculty of Informatics, Masaryk University: From a Different Perspective or How Do You See It?","Excerpt":""}}]}},{"Link":"https://www.pharm.muni.cz/newsletter/archiv/2022-3-2","PostDate":"2022-03-31","Title":"22. ročník Filmového festivalu Fakulty informatiky Masarykovy univerzity (FFFIMU)","localizations":{"data":[{"attributes":{"Title":"22nd Film Festival of the Faculty of Informatics of the Masaryk university (FFFIMU)","Excerpt":null}}]}},{"Link":"https://protisedi.cz/v-kvetnu-probehne-22-filmovy-festival-fakulty-informatiky-masarykovy-univerzity/","PostDate":"2022-03-29","Title":"V květnu proběhne 22. Filmový festival Fakulty informatiky Masarykovy univerzity","localizations":{"data":[{"attributes":{"Title":"The 22nd Film Festival of the Faculty of Informatics of Masaryk University will take place in May","Excerpt":""}}]}},{"Link":"https://www.kult.cz/22-filmovy-festival-fakulty-informatiky-masarykovy-univerzity-jak-vidis-ty","PostDate":"2022-03-25","Title":"22. Filmový festival Fakulty informatiky Masarykovy univerzity – Jak to vidíš ty?","localizations":{"data":[{"attributes":{"Title":"22nd Masaryk University Faculty of Informatics Film Festival - How do you see it?","Excerpt":""}}]}},{"Link":"https://www.informuji.cz/akce/jhm/252656-22-filmovy-festival-fakulty-informatiky-masarykovy-univerzity/","PostDate":"2022-03-16","Title":"22. Filmový festival Fakulty Informatiky Masarykovy univerzity","localizations":{"data":[{"attributes":{"Title":"22nd Film Festival of the Faculty of Informatics, Masaryk University","Excerpt":""}}]}},{"Link":"https://www.gotobrno.cz/akce/22-filmovy-festival-fakulty-informatiky-masarykovy-univerzity/","PostDate":"2022-03-13","Title":"22. Filmový festival Fakulty informatiky Masarykovy univerzity","localizations":{"data":[{"attributes":{"Title":"22nd Film Festival of the Faculty of Informatics, Masaryk University","Excerpt":""}}]}}],"fieldValue":"cs"},{"nodes":[{"Link":"https://brnodaily.com/2022/05/18/events-in-brno/behind-the-scenes-of-the-22nd-muni-film-festival-with-organisers-iryna-and-adam/","PostDate":"2022-05-18","Title":"Behind The Scenes of The 22nd MUNI Film Festival, With Organisers Iryna And Adam","localizations":{"data":[]}},{"Link":"https://brnodaily.com/2022/03/30/brno/this-years-22nd-film-festival-of-the-muni-faculty-of-informatics-from-a-different-perspective/","PostDate":"2022-03-30","Title":"This Year’s 22nd Film Festival of the MUNI Faculty of Informatics… From a Different Perspective!","localizations":{"data":[{"attributes":{"Title":"This Year’s 22nd Film Festival of the MUNI Faculty of Informatics… From a Different Perspective!","Excerpt":""}}]}}],"fieldValue":"en"}]}},"pageContext":{"lang":"cs"}},
    "staticQueryHashes": ["2841541544","3626529835","3831893114"]}