{
    "componentChunkName": "component---src-templates-films-tsx",
    "path": "/films",
    "result": {"data":{"allStrapiFilm":{"group":[{"fieldValue":"Bonus","nodes":[{"Name":"Poklad","Description":"Jde o modernizaci\nstejnojmenné balady\nK. J. Erbena z básnické\nsbírky Kytice. Pojednává\no zbožné ženě v tíživé\nfinanční situaci, která\njednoho dne z Boží\nmilosti nalezne poklad\na přemůže ji chamtivost.","DirectedBy":"Aizhan Kyndybayeva","Screenplay":"Adam Závodský","Editing":"Jan Hvězda","Animation":null,"SoundDesign":"Daniel Ternovský","VideoLink":"https://www.youtube.com/watch?v=SzUEHZCDqWk&list=PLeA0l0ge8ljgj_t9lsC4OMfhdMtVzJQhv&index=11","Music":null,"Cast":"Lenka Heldiová, Rozálie Průšová","ExecutiveProducer":"Barbora Dohnalová","Effects":null,"CustomField1Key":null,"CustomField1Value":null,"Index":10,"ShowVideoLink":true,"Image":{"localFile":{"childImageSharp":{"gatsbyImageData":{"layout":"constrained","backgroundColor":"#080808","images":{"fallback":{"src":"/static/61b0f6d2f370cc72c02a97b47b8c92ec/c77fe/poklad_271d8a7edd_AAwyRk3Hl.jpg","srcSet":"/static/61b0f6d2f370cc72c02a97b47b8c92ec/0c17c/poklad_271d8a7edd_AAwyRk3Hl.jpg 1239w,\n/static/61b0f6d2f370cc72c02a97b47b8c92ec/74ac8/poklad_271d8a7edd_AAwyRk3Hl.jpg 2477w,\n/static/61b0f6d2f370cc72c02a97b47b8c92ec/c77fe/poklad_271d8a7edd_AAwyRk3Hl.jpg 4954w","sizes":"(min-width: 4954px) 4954px, 100vw"},"sources":[{"srcSet":"/static/61b0f6d2f370cc72c02a97b47b8c92ec/b0107/poklad_271d8a7edd_AAwyRk3Hl.webp 1239w,\n/static/61b0f6d2f370cc72c02a97b47b8c92ec/e7d1c/poklad_271d8a7edd_AAwyRk3Hl.webp 2477w,\n/static/61b0f6d2f370cc72c02a97b47b8c92ec/e5c90/poklad_271d8a7edd_AAwyRk3Hl.webp 4954w","type":"image/webp","sizes":"(min-width: 4954px) 4954px, 100vw"}]},"width":4954,"height":3303}}}},"localizations":{"data":[{"attributes":{"CustomField1Key":null,"Description":"It is a modernisation\nballads of the same name\nK. J. Erben from the poet\nBouquets collection. Is about\nabout a pious woman in distress\nfinancial situation which\none day from God\ngrace finds the treasure\nand greed overpowers her.","Name":"Poklad"}}]}},{"Name":"R a u u","Description":"V prasknutom zrkadle chýba črepinka. Tajomná postava sa k nemu približuje, aby to napravila, no musí sa zbaviť nadbytočných vrstiev, ak sa chce pohnúť ďalej. Čo z nej nakoniec zostane?","DirectedBy":"Zlata Golecová","Screenplay":"Zlata Golecová","Editing":"Vladimíra Vrbiňáková","Animation":"Zlata Golecová","SoundDesign":"Natália Jancová","VideoLink":null,"Music":"Samuel Hvozdík","Cast":null,"ExecutiveProducer":"Martin Drgoň","Effects":null,"CustomField1Key":"Vedoucí výpravy","CustomField1Value":"Zlata Golecová","Index":20,"ShowVideoLink":false,"Image":{"localFile":{"childImageSharp":{"gatsbyImageData":{"layout":"constrained","backgroundColor":"#080838","images":{"fallback":{"src":"/static/9964f7e5fcb7ba9338f52361cbd80e43/9a99f/rauu_b9b4ea3e57_4ejyUUtYqy.jpg","srcSet":"/static/9964f7e5fcb7ba9338f52361cbd80e43/a1378/rauu_b9b4ea3e57_4ejyUUtYqy.jpg 432w,\n/static/9964f7e5fcb7ba9338f52361cbd80e43/2dcf5/rauu_b9b4ea3e57_4ejyUUtYqy.jpg 864w,\n/static/9964f7e5fcb7ba9338f52361cbd80e43/9a99f/rauu_b9b4ea3e57_4ejyUUtYqy.jpg 1728w","sizes":"(min-width: 1728px) 1728px, 100vw"},"sources":[{"srcSet":"/static/9964f7e5fcb7ba9338f52361cbd80e43/9f363/rauu_b9b4ea3e57_4ejyUUtYqy.webp 432w,\n/static/9964f7e5fcb7ba9338f52361cbd80e43/69499/rauu_b9b4ea3e57_4ejyUUtYqy.webp 864w,\n/static/9964f7e5fcb7ba9338f52361cbd80e43/9669f/rauu_b9b4ea3e57_4ejyUUtYqy.webp 1728w","type":"image/webp","sizes":"(min-width: 1728px) 1728px, 100vw"}]},"width":1728,"height":1152}}}},"localizations":{"data":[{"attributes":{"CustomField1Key":"Expedition leader","Description":"The cracked mirror is missing a shard. The mysterious character approaches it to fix it, but he has to remove the extra layers if he wants to move on. What will be left of him in the end?","Name":"R a u u"}}]}},{"Name":"Archetyp vyzrálé moudrosti","Description":"Mladý muž je vydírán zvráceným manželským párem, aby zdiskreditoval poctivého právníka. Anebo je vše jinak?","DirectedBy":"Lukáš Caletka","Screenplay":"Lukáš Caletka","Editing":"Lukáš Caletka","Animation":null,"SoundDesign":"Roman Pelikán, Martin Baran","VideoLink":"https://www.youtube.com/watch?v=EtHjqfZLpCU&list=PLeA0l0ge8ljgj_t9lsC4OMfhdMtVzJQhv&index=12","Music":"Mikoláš Dvořáček","Cast":"Eliška Jechová, Honza Lukeš, Kamil Bačovský, Jiří Nebenführ","ExecutiveProducer":null,"Effects":null,"CustomField1Key":"","CustomField1Value":"","Index":30,"ShowVideoLink":true,"Image":{"localFile":{"childImageSharp":{"gatsbyImageData":{"layout":"constrained","backgroundColor":"#181818","images":{"fallback":{"src":"/static/07ad986dfddb21775906b404e6783fed/177fc/archetyp_ext_f1a8bc32a7_iVmmuSBLJ.jpg","srcSet":"/static/07ad986dfddb21775906b404e6783fed/09a25/archetyp_ext_f1a8bc32a7_iVmmuSBLJ.jpg 428w,\n/static/07ad986dfddb21775906b404e6783fed/cc10a/archetyp_ext_f1a8bc32a7_iVmmuSBLJ.jpg 855w,\n/static/07ad986dfddb21775906b404e6783fed/177fc/archetyp_ext_f1a8bc32a7_iVmmuSBLJ.jpg 1710w","sizes":"(min-width: 1710px) 1710px, 100vw"},"sources":[{"srcSet":"/static/07ad986dfddb21775906b404e6783fed/1998e/archetyp_ext_f1a8bc32a7_iVmmuSBLJ.webp 428w,\n/static/07ad986dfddb21775906b404e6783fed/523a7/archetyp_ext_f1a8bc32a7_iVmmuSBLJ.webp 855w,\n/static/07ad986dfddb21775906b404e6783fed/135ae/archetyp_ext_f1a8bc32a7_iVmmuSBLJ.webp 1710w","type":"image/webp","sizes":"(min-width: 1710px) 1710px, 100vw"}]},"width":1710,"height":1140}}}},"localizations":{"data":[{"attributes":{"CustomField1Key":"Theme","Description":"The young man is blackmailed by a perverted couple to discredit an honest lawyer.\nOr is everything different?","Name":"Archetyp vyzrálé moudrosti"}}]}},{"Name":"Na zjedenie","Description":"Samozvaný kritik jídel se chystá zničit kariéru dalšího z uznávaných podniků. Cestu mu zkříží jeden z nejlepších šéfkuchařů ve městě. I přes usilí šéfkuchaře se zdá, že na menu neexistuje jídlo, které by kritika dokázalo uspokojit.","DirectedBy":"Pavel Holub, Andrea Kmecová","Screenplay":"Pavel Holub","Editing":"Magdaléna Samcová","Animation":null,"SoundDesign":"Daniel Ternovský","VideoLink":null,"Music":null,"Cast":"Robert Tyleček, Pavel Holub, Júlia Ujháziová","ExecutiveProducer":"Martin Mikl","Effects":null,"CustomField1Key":"Námět","CustomField1Value":"Pavel Holub","Index":40,"ShowVideoLink":false,"Image":{"localFile":{"childImageSharp":{"gatsbyImageData":{"layout":"constrained","backgroundColor":"#283858","images":{"fallback":{"src":"/static/d79a531ef12f5242e6068597c7486512/9a99f/na_zjedenie3_7c872c1a5a_NY-Jxoqju3.jpg","srcSet":"/static/d79a531ef12f5242e6068597c7486512/a1378/na_zjedenie3_7c872c1a5a_NY-Jxoqju3.jpg 432w,\n/static/d79a531ef12f5242e6068597c7486512/2dcf5/na_zjedenie3_7c872c1a5a_NY-Jxoqju3.jpg 864w,\n/static/d79a531ef12f5242e6068597c7486512/9a99f/na_zjedenie3_7c872c1a5a_NY-Jxoqju3.jpg 1728w","sizes":"(min-width: 1728px) 1728px, 100vw"},"sources":[{"srcSet":"/static/d79a531ef12f5242e6068597c7486512/9f363/na_zjedenie3_7c872c1a5a_NY-Jxoqju3.webp 432w,\n/static/d79a531ef12f5242e6068597c7486512/69499/na_zjedenie3_7c872c1a5a_NY-Jxoqju3.webp 864w,\n/static/d79a531ef12f5242e6068597c7486512/9669f/na_zjedenie3_7c872c1a5a_NY-Jxoqju3.webp 1728w","type":"image/webp","sizes":"(min-width: 1728px) 1728px, 100vw"}]},"width":1728,"height":1152}}}},"localizations":{"data":[{"attributes":{"CustomField1Key":"Theme","Description":"A self-proclaimed food critic is about to ruin the career of another reputable company. One of the best chefs in town crosses his path. Despite the chef's efforts, there seems to be no food on the menu that can satisfy the critics.","Name":"Na zjedenie"}}]}}]},{"fieldValue":"First","nodes":[{"Name":"Timey FImey","Description":"HCI Lab je veru zázračné miesto. Stačí pridať štipku čiernej mágie a skratujúcu techniku a o zábavu je postarané. Stíhať deadlines je však komplikovanejšie, lebo tam čas plynie trochu inak... alebo je to tým, ako ten čas vnímame?","DirectedBy":"Nikola Kunzová","Screenplay":"Nikola Kunzová, Katarína Dedíková","Editing":"Nikola Kunzová, Katarína Dedíková","Animation":null,"SoundDesign":"Adam Štěpánek, Hana Tokárová","VideoLink":"https://www.youtube.com/watch?v=2y8mOqVrDoY&list=PLeA0l0ge8ljgj_t9lsC4OMfhdMtVzJQhv&index=1","Music":"Darren Curtis","Cast":"Adam Štěpánek, Eva Kuhejdová, Ján Popeláš, Jiří Chmelík, Nikola Kunzová, Katarína Dedíková, Hana Tokárová, Monika Vlachová","ExecutiveProducer":null,"Effects":"Nikola Kunzová, Katarína Dedíková","CustomField1Key":null,"CustomField1Value":null,"Index":1,"ShowVideoLink":true,"Image":{"localFile":{"childImageSharp":{"gatsbyImageData":{"layout":"constrained","backgroundColor":"#080808","images":{"fallback":{"src":"/static/0346aed417a1b7e58894f0cc96daf810/a4e0f/timey_flmey_caff2f575d_qtYWxO3Vx.jpg","srcSet":"/static/0346aed417a1b7e58894f0cc96daf810/ec080/timey_flmey_caff2f575d_qtYWxO3Vx.jpg 1125w,\n/static/0346aed417a1b7e58894f0cc96daf810/406bc/timey_flmey_caff2f575d_qtYWxO3Vx.jpg 2250w,\n/static/0346aed417a1b7e58894f0cc96daf810/a4e0f/timey_flmey_caff2f575d_qtYWxO3Vx.jpg 4500w","sizes":"(min-width: 4500px) 4500px, 100vw"},"sources":[{"srcSet":"/static/0346aed417a1b7e58894f0cc96daf810/4e308/timey_flmey_caff2f575d_qtYWxO3Vx.webp 1125w,\n/static/0346aed417a1b7e58894f0cc96daf810/9532e/timey_flmey_caff2f575d_qtYWxO3Vx.webp 2250w,\n/static/0346aed417a1b7e58894f0cc96daf810/5d17f/timey_flmey_caff2f575d_qtYWxO3Vx.webp 4500w","type":"image/webp","sizes":"(min-width: 4500px) 4500px, 100vw"}]},"width":4500,"height":3000}}}},"localizations":{"data":[{"attributes":{"CustomField1Key":null,"Description":"HCI Lab is a truly miraculous place. Just add a pinch of black magic and a shortening technique and the fun is taken care of. However, chasing deadlines is more complicated because time flows a little differently there ... or is it how we perceive that time?","Name":"Timey FImey"}}]}},{"Name":"Tomato hairytage","Description":"Abstraktná skoro love story jedného cudzinca, ktorý bojuje so svojimi zvykmi a kultúrou. Aj v cudzine má svoju komfortnú zónu avšak jedna udalosť v saune mu naštartuje myšlienkový proces vyrovnávania sa s jeho už zakorenenými stereotypmi.","DirectedBy":"Laura Kočanová","Screenplay":"Laura Kočanová, Matúš Oparty","Editing":"Laura Kočanová","Animation":"Laura Kočanová, Gregor Grega, Maria Burianová","SoundDesign":"Jakub Smolák, Andrej Osvald","VideoLink":null,"Music":"EMMITA, NaiKavols","Cast":null,"ExecutiveProducer":"Patrícia Alexia Pošová","Effects":null,"CustomField1Key":"Vedoucí výpravy","CustomField1Value":"Laura Kočanová","Index":20,"ShowVideoLink":false,"Image":{"localFile":{"childImageSharp":{"gatsbyImageData":{"layout":"constrained","backgroundColor":"#08a8b8","images":{"fallback":{"src":"/static/609459bf3a8d2e3f05bdf529b2263d02/fd518/tomato_hairytage_706c58bec4_p_LPSAD3q.jpg","srcSet":"/static/609459bf3a8d2e3f05bdf529b2263d02/c1fdf/tomato_hairytage_706c58bec4_p_LPSAD3q.jpg 973w,\n/static/609459bf3a8d2e3f05bdf529b2263d02/1b407/tomato_hairytage_706c58bec4_p_LPSAD3q.jpg 1946w,\n/static/609459bf3a8d2e3f05bdf529b2263d02/fd518/tomato_hairytage_706c58bec4_p_LPSAD3q.jpg 3891w","sizes":"(min-width: 3891px) 3891px, 100vw"},"sources":[{"srcSet":"/static/609459bf3a8d2e3f05bdf529b2263d02/a7e6d/tomato_hairytage_706c58bec4_p_LPSAD3q.webp 973w,\n/static/609459bf3a8d2e3f05bdf529b2263d02/b3458/tomato_hairytage_706c58bec4_p_LPSAD3q.webp 1946w,\n/static/609459bf3a8d2e3f05bdf529b2263d02/1d1a8/tomato_hairytage_706c58bec4_p_LPSAD3q.webp 3891w","type":"image/webp","sizes":"(min-width: 3891px) 3891px, 100vw"}]},"width":3891,"height":2462}}}},"localizations":{"data":[{"attributes":{"CustomField1Key":"Expedition leader","Description":"An abstract almost love story of a stranger who struggles with his customs and culture. He also has his own comfort zone abroad, but one event in the sauna starts his thought process of coping with his already ingrained stereotypes.","Name":"Tomato hairytage"}}]}},{"Name":"Parazit","Description":"Barevný zážitek trojice kamarádů naruší nedostatek bylin zvaných „parazit”, povolávají a využívají přítele od Aničky – Pepika, který je nucen k zoufalým činům pouze proto, aby byli nakonec všichni spokojeni.","DirectedBy":"Jaroslav Vůjtek","Screenplay":"Jaroslav Vůjtek","Editing":"Radek Barták","Animation":null,"SoundDesign":"Jakub Střelec","VideoLink":"https://www.youtube.com/watch?v=Pe2VzG9s3eo&list=PLeA0l0ge8ljgj_t9lsC4OMfhdMtVzJQhv&index=2","Music":null,"Cast":"Viktor Marťan, Gabriel Kulíšek, Barbora Sedláčková, Radek Barták","ExecutiveProducer":null,"Effects":null,"CustomField1Key":"Barevná korekce","CustomField1Value":"Filip Neminarz","Index":30,"ShowVideoLink":true,"Image":{"localFile":{"childImageSharp":{"gatsbyImageData":{"layout":"constrained","backgroundColor":"#281808","images":{"fallback":{"src":"/static/71fa62e854165961d5f0e8e2eaeec5c0/9a99f/parazit4_2c89e9d3bd_C0jdryBMJI.jpg","srcSet":"/static/71fa62e854165961d5f0e8e2eaeec5c0/a1378/parazit4_2c89e9d3bd_C0jdryBMJI.jpg 432w,\n/static/71fa62e854165961d5f0e8e2eaeec5c0/2dcf5/parazit4_2c89e9d3bd_C0jdryBMJI.jpg 864w,\n/static/71fa62e854165961d5f0e8e2eaeec5c0/9a99f/parazit4_2c89e9d3bd_C0jdryBMJI.jpg 1728w","sizes":"(min-width: 1728px) 1728px, 100vw"},"sources":[{"srcSet":"/static/71fa62e854165961d5f0e8e2eaeec5c0/9f363/parazit4_2c89e9d3bd_C0jdryBMJI.webp 432w,\n/static/71fa62e854165961d5f0e8e2eaeec5c0/69499/parazit4_2c89e9d3bd_C0jdryBMJI.webp 864w,\n/static/71fa62e854165961d5f0e8e2eaeec5c0/9669f/parazit4_2c89e9d3bd_C0jdryBMJI.webp 1728w","type":"image/webp","sizes":"(min-width: 1728px) 1728px, 100vw"}]},"width":1728,"height":1152}}}},"localizations":{"data":[{"attributes":{"CustomField1Key":"Color correction","Description":"The colourful experience of the three friends disrupts the lack of herbs called \"parasites\" they call and use a friend from Anička - Pepik, who is forced to do desperate deeds only so that everyone is satisfied in the end.","Name":"Parazit"}}]}},{"Name":"Sestry","Description":"Krásne sú ranné ruže, obťažkané rosou, krásna slávnosť po skľučujúcich brieždeniach. Polámaná tráva, roje ôs, slnce zažehnavajúce nad hriechom prižmúrené oči, aj tie krásu páchajú.","DirectedBy":"Kristián Grupač","Screenplay":"Kristián Grupač","Editing":"Daniel Gavenda","Animation":null,"SoundDesign":"Maroš Olah","VideoLink":"https://www.youtube.com/watch?v=FD82QhcwtU8&list=PLeA0l0ge8ljgj_t9lsC4OMfhdMtVzJQhv&index=4","Music":"Patrik Kako","Cast":"Rosa Pokorná, Iveta Pagáčová","ExecutiveProducer":"Simona Guzzi, Rosa Pokorná","Effects":null,"CustomField1Key":"Námět","CustomField1Value":"Kristián Grupač","Index":40,"ShowVideoLink":true,"Image":{"localFile":{"childImageSharp":{"gatsbyImageData":{"layout":"constrained","backgroundColor":"#181818","images":{"fallback":{"src":"/static/b48332fe3d16325cb92f1f075dceeb45/e8449/sestry2_5fcedfd124_sKcwwCsOW.jpg","srcSet":"/static/b48332fe3d16325cb92f1f075dceeb45/d5ac6/sestry2_5fcedfd124_sKcwwCsOW.jpg 297w,\n/static/b48332fe3d16325cb92f1f075dceeb45/07619/sestry2_5fcedfd124_sKcwwCsOW.jpg 594w,\n/static/b48332fe3d16325cb92f1f075dceeb45/e8449/sestry2_5fcedfd124_sKcwwCsOW.jpg 1188w","sizes":"(min-width: 1188px) 1188px, 100vw"},"sources":[{"srcSet":"/static/b48332fe3d16325cb92f1f075dceeb45/cd3d7/sestry2_5fcedfd124_sKcwwCsOW.webp 297w,\n/static/b48332fe3d16325cb92f1f075dceeb45/fe6ae/sestry2_5fcedfd124_sKcwwCsOW.webp 594w,\n/static/b48332fe3d16325cb92f1f075dceeb45/1d270/sestry2_5fcedfd124_sKcwwCsOW.webp 1188w","type":"image/webp","sizes":"(min-width: 1188px) 1188px, 100vw"}]},"width":1188,"height":792}}}},"localizations":{"data":[{"attributes":{"CustomField1Key":"Theme","Description":"Beautiful are the morning roses, burdened with dew, a beautiful celebration after depressing warts. The broken grass, the swarms of axes, and the sun that blesses sinful eyes over sin also do beauty.","Name":"Sestry"}}]}},{"Name":"Nôž","Description":"Film rozpráva o sile materinskej lásky. Zobrazuje animálnu brutalitu, akou je matka schopná ochrániť svoje dieťa pred nebezpečenstvom.","DirectedBy":"Timotej Lukovič","Screenplay":"Timotej Lukovič","Editing":"Petra Vrbová, Timotej Lukovič","Animation":"Timotej Lukovič, Viktória Taranová","SoundDesign":"William Radič","VideoLink":null,"Music":"Jaro Ryzek","Cast":null,"ExecutiveProducer":"Viktorija Martinka","Effects":null,"CustomField1Key":"Vedoucí výpravy","CustomField1Value":"Timotej Lukovič","Index":50,"ShowVideoLink":false,"Image":{"localFile":{"childImageSharp":{"gatsbyImageData":{"layout":"constrained","backgroundColor":"#886868","images":{"fallback":{"src":"/static/da3537cf6efd2ffb5fad92bf8c0cb7c5/6176f/noz_bf473bff2e_cecyVe6w9.jpg","srcSet":"/static/da3537cf6efd2ffb5fad92bf8c0cb7c5/a61d7/noz_bf473bff2e_cecyVe6w9.jpg 405w,\n/static/da3537cf6efd2ffb5fad92bf8c0cb7c5/8cb06/noz_bf473bff2e_cecyVe6w9.jpg 810w,\n/static/da3537cf6efd2ffb5fad92bf8c0cb7c5/6176f/noz_bf473bff2e_cecyVe6w9.jpg 1620w","sizes":"(min-width: 1620px) 1620px, 100vw"},"sources":[{"srcSet":"/static/da3537cf6efd2ffb5fad92bf8c0cb7c5/503a2/noz_bf473bff2e_cecyVe6w9.webp 405w,\n/static/da3537cf6efd2ffb5fad92bf8c0cb7c5/483db/noz_bf473bff2e_cecyVe6w9.webp 810w,\n/static/da3537cf6efd2ffb5fad92bf8c0cb7c5/77d68/noz_bf473bff2e_cecyVe6w9.webp 1620w","type":"image/webp","sizes":"(min-width: 1620px) 1620px, 100vw"}]},"width":1620,"height":1080}}}},"localizations":{"data":[{"attributes":{"CustomField1Key":"Expedition leader","Description":"The film talks about the power of motherly love. It shows the animal brutality that a mother can protect her baby from danger.","Name":"Nôž"}}]}}]},{"fieldValue":"Second","nodes":[{"Name":"Na jednu noc","Description":"Nešťastně zamilovaný Jáchym si nalhává, že Zuzka je úžasná holka. A ona možná je, jenže v podobné iluzi nechává několik dalších mužů. Komediální drobnokresba o pošetilosti citů.","DirectedBy":"Matěj Škop","Screenplay":"Matěj Škop","Editing":"Edie Kheir","Animation":null,"SoundDesign":"Sami Al-Dury","VideoLink":"https://www.youtube.com/watch?v=gV4-_SFIkTk&list=PLeA0l0ge8ljgj_t9lsC4OMfhdMtVzJQhv&index=6","Music":null,"Cast":"Georg Masnikosa, Jana Houbová, Štěpán Kučera, Marek Růna, Natálie Lesníková","ExecutiveProducer":null,"Effects":null,"CustomField1Key":"Dramaturgie","CustomField1Value":"Filip Zeman, Lucie Makovská","Index":10,"ShowVideoLink":true,"Image":{"localFile":{"childImageSharp":{"gatsbyImageData":{"layout":"constrained","backgroundColor":"#d8b898","images":{"fallback":{"src":"/static/41e223354852f7749bd275222e7bc336/7b8df/na_jednu_noc_85257d9050_WHUsciYS3.jpg","srcSet":"/static/41e223354852f7749bd275222e7bc336/340f3/na_jednu_noc_85257d9050_WHUsciYS3.jpg 847w,\n/static/41e223354852f7749bd275222e7bc336/d1ab3/na_jednu_noc_85257d9050_WHUsciYS3.jpg 1693w,\n/static/41e223354852f7749bd275222e7bc336/7b8df/na_jednu_noc_85257d9050_WHUsciYS3.jpg 3386w","sizes":"(min-width: 3386px) 3386px, 100vw"},"sources":[{"srcSet":"/static/41e223354852f7749bd275222e7bc336/6ea88/na_jednu_noc_85257d9050_WHUsciYS3.webp 847w,\n/static/41e223354852f7749bd275222e7bc336/21cce/na_jednu_noc_85257d9050_WHUsciYS3.webp 1693w,\n/static/41e223354852f7749bd275222e7bc336/7c31a/na_jednu_noc_85257d9050_WHUsciYS3.webp 3386w","type":"image/webp","sizes":"(min-width: 3386px) 3386px, 100vw"}]},"width":3386,"height":2257}}}},"localizations":{"data":[{"attributes":{"CustomField1Key":"Dramaturgy","Description":"Jáchym, unhappily in love, is lying to himself that Zuzka is an amazing girl. And maybe it is, but it leaves several other men in a similar illusion. A comedy about the folly of emotions.","Name":"Na jednu noc"}}]}},{"Name":"C5","Description":"C5 je označení obratle, od kterého je Jiří Čeloud, který své postižení nabyl v šestnácti letech nešťastným skokem do rybníka, ochrnutý. Jiří popisuje prvotní pocity seznamování se s kvadruplegií společně s body zlomu, které vedly k jeho současnému způsobu života.","DirectedBy":"Štěpánka Moudrá","Screenplay":"Štěpánka Moudrá","Editing":"Štěpánka Moudrá, Veronika Butkevich","Animation":null,"SoundDesign":"Martin Kroulík","VideoLink":"","Music":null,"Cast":"Jiří Čeloud","ExecutiveProducer":"Stanislav Kopáček, Radovan Gavač","Effects":null,"CustomField1Key":"Námět","CustomField1Value":"Štěpánka Moudrá","Index":20,"ShowVideoLink":false,"Image":{"localFile":{"childImageSharp":{"gatsbyImageData":{"layout":"constrained","backgroundColor":"#383838","images":{"fallback":{"src":"/static/ef3f005922b713b89a1c8efc2f42f807/d796c/c5_3_e93901118f_m5mBGwc0_t.jpg","srcSet":"/static/ef3f005922b713b89a1c8efc2f42f807/72273/c5_3_e93901118f_m5mBGwc0_t.jpg 351w,\n/static/ef3f005922b713b89a1c8efc2f42f807/b8a6e/c5_3_e93901118f_m5mBGwc0_t.jpg 702w,\n/static/ef3f005922b713b89a1c8efc2f42f807/d796c/c5_3_e93901118f_m5mBGwc0_t.jpg 1404w","sizes":"(min-width: 1404px) 1404px, 100vw"},"sources":[{"srcSet":"/static/ef3f005922b713b89a1c8efc2f42f807/711bd/c5_3_e93901118f_m5mBGwc0_t.webp 351w,\n/static/ef3f005922b713b89a1c8efc2f42f807/cd949/c5_3_e93901118f_m5mBGwc0_t.webp 702w,\n/static/ef3f005922b713b89a1c8efc2f42f807/33c69/c5_3_e93901118f_m5mBGwc0_t.webp 1404w","type":"image/webp","sizes":"(min-width: 1404px) 1404px, 100vw"}]},"width":1404,"height":936}}}},"localizations":{"data":[{"attributes":{"CustomField1Key":"Theme","Description":"C5 is the name of the vertebra from which Jiří Čeloud, who acquired his disability at the age of sixteen by an unfortunate jump into the pond, is paralyzed. George describes the initial feelings of getting acquainted with quadriplegia, along with the turning points that led to his current way of life.","Name":"C5"}}]}},{"Name":"A všechno do sebe začíná dávat od začátku smysl","Description":"Film přibližuje radosti a starosti mladých studentů vysoké školy. Netradiční způsob vyprávění, kde je obsah zcela podřízen formě, je zároveň reflexí a přiblížením tvůrčích strastí, stejně tak ale i momentů naděje, nadšení, inspirace, či naprostého zoufalství.","DirectedBy":"Patrik Trachtulec, Tatiana Pavolková","Screenplay":null,"Editing":"Patrik Trachtulec","Animation":null,"SoundDesign":"Samuel Šindler, Juraj Ulbrich","VideoLink":null,"Music":"Patrik Trachtulec","Cast":"Jan Valeš, Patrik Trachtulec, Martin Urbaník, Veronika Šupejová","ExecutiveProducer":"Patrik Trachtulec, Anna Košuličová","Effects":null,"CustomField1Key":"Běžec","CustomField1Value":"Otakar Joch","Index":30,"ShowVideoLink":false,"Image":{"localFile":{"childImageSharp":{"gatsbyImageData":{"layout":"constrained","backgroundColor":"#181818","images":{"fallback":{"src":"/static/3a30895b69d02a4d341fd4da00e4c37c/4d2fd/a_vsechno_do_sebe_e902cda947_cW7FlepXNY.jpg","srcSet":"/static/3a30895b69d02a4d341fd4da00e4c37c/c4c7f/a_vsechno_do_sebe_e902cda947_cW7FlepXNY.jpg 370w,\n/static/3a30895b69d02a4d341fd4da00e4c37c/e58bb/a_vsechno_do_sebe_e902cda947_cW7FlepXNY.jpg 741w,\n/static/3a30895b69d02a4d341fd4da00e4c37c/4d2fd/a_vsechno_do_sebe_e902cda947_cW7FlepXNY.jpg 1481w","sizes":"(min-width: 1481px) 1481px, 100vw"},"sources":[{"srcSet":"/static/3a30895b69d02a4d341fd4da00e4c37c/dd5d6/a_vsechno_do_sebe_e902cda947_cW7FlepXNY.webp 370w,\n/static/3a30895b69d02a4d341fd4da00e4c37c/f7c65/a_vsechno_do_sebe_e902cda947_cW7FlepXNY.webp 741w,\n/static/3a30895b69d02a4d341fd4da00e4c37c/481e5/a_vsechno_do_sebe_e902cda947_cW7FlepXNY.webp 1481w","type":"image/webp","sizes":"(min-width: 1481px) 1481px, 100vw"}]},"width":1481,"height":986.9999999999999}}}},"localizations":{"data":[{"attributes":{"CustomField1Key":"Runner","Description":"The film introduces the joys and worries of young college students. The non-traditional way of storytelling, where the content is wholly subordinated to the form, is simultaneously a reflection and approach to creating misery and moments of hope, enthusiasm, inspiration, or utter despair.","Name":"A všechno do sebe začíná dávat od začátku smysl"}}]}},{"Name":"Trubec 87","Description":"Ondřej je perfekcionista. Miluje systém a pořádek ve svém okolním světě. Podaří se mu tento řád vnést i do vztahu s pohlednou dívkou z knihovny?","DirectedBy":"František Tomis","Screenplay":"František Tomis","Editing":"František Tomis","Animation":null,"SoundDesign":"Lumír Urban, Marek Laryš, Radek Barták","VideoLink":"https://youtu.be/X_3Ed2j4fBw","Music":null,"Cast":"Šimon Krupa, Kateřina Byrtusová","ExecutiveProducer":null,"Effects":null,"CustomField1Key":"Asistent režie","CustomField1Value":"Dominika Pavelková, Patrik Hrabě","Index":40,"ShowVideoLink":true,"Image":{"localFile":{"childImageSharp":{"gatsbyImageData":{"layout":"constrained","backgroundColor":"#382828","images":{"fallback":{"src":"/static/8bd0fd87f4f8ea514928a94a51a5cc2e/9a99f/Trubec87d_Frantisek_Tomis_98ca558258_yjIHkvFPt.jpg","srcSet":"/static/8bd0fd87f4f8ea514928a94a51a5cc2e/a1378/Trubec87d_Frantisek_Tomis_98ca558258_yjIHkvFPt.jpg 432w,\n/static/8bd0fd87f4f8ea514928a94a51a5cc2e/2dcf5/Trubec87d_Frantisek_Tomis_98ca558258_yjIHkvFPt.jpg 864w,\n/static/8bd0fd87f4f8ea514928a94a51a5cc2e/9a99f/Trubec87d_Frantisek_Tomis_98ca558258_yjIHkvFPt.jpg 1728w","sizes":"(min-width: 1728px) 1728px, 100vw"},"sources":[{"srcSet":"/static/8bd0fd87f4f8ea514928a94a51a5cc2e/9f363/Trubec87d_Frantisek_Tomis_98ca558258_yjIHkvFPt.webp 432w,\n/static/8bd0fd87f4f8ea514928a94a51a5cc2e/69499/Trubec87d_Frantisek_Tomis_98ca558258_yjIHkvFPt.webp 864w,\n/static/8bd0fd87f4f8ea514928a94a51a5cc2e/9669f/Trubec87d_Frantisek_Tomis_98ca558258_yjIHkvFPt.webp 1728w","type":"image/webp","sizes":"(min-width: 1728px) 1728px, 100vw"}]},"width":1728,"height":1152}}}},"localizations":{"data":[{"attributes":{"CustomField1Key":"Assistant director","Description":"Ondrej is a perfectionist. He loves the system and order in the world around him. Will he be able to bring this order into a relationship with a handsome girl from the library?","Name":"Trubec 87"}}]}},{"Name":"Príliš veľa balónov","Description":"Dva svety, jeden večer a príliš veľa balónov. To je Evina oslava narodenín, ktorá stále žije v jej spomienkach. Počas rokov sa mení, deformuje, odchádza a znovu prichádza. Podarí sa Eve nájsť konečne svoj mier?","DirectedBy":"Tatiana Pavolková","Screenplay":"Tatiana Pavolková","Editing":"Tatiana Pavolková","Animation":null,"SoundDesign":"Samuel Šindler","VideoLink":"https://www.youtube.com/watch?v=AO7DscI9OmE&list=PLeA0l0ge8ljgj_t9lsC4OMfhdMtVzJQhv&index=8&pp=sAQB","Music":"Jaroslav Prílepok","Cast":"Eliška Jechová, Anna Zahálková, Martin Mikuš, Klára Beránková, Martin Kapek, Šárka Portešová, Viktor Strmiska","ExecutiveProducer":"Tatiana Pavolková, Šárka Portešová, Anna Košuličová, Katarína Ráczová","Effects":null,"CustomField1Key":"Barevná korekce","CustomField1Value":"Tatiana Pavolková","Index":50,"ShowVideoLink":true,"Image":{"localFile":{"childImageSharp":{"gatsbyImageData":{"layout":"constrained","backgroundColor":"#080808","images":{"fallback":{"src":"/static/ec6a491d7c06ef45ff20911f46718703/8275a/prilis_vela_balonov1_a62e8f9e27_n67uTqPE7.jpg","srcSet":"/static/ec6a491d7c06ef45ff20911f46718703/b39c5/prilis_vela_balonov1_a62e8f9e27_n67uTqPE7.jpg 312w,\n/static/ec6a491d7c06ef45ff20911f46718703/76f8c/prilis_vela_balonov1_a62e8f9e27_n67uTqPE7.jpg 625w,\n/static/ec6a491d7c06ef45ff20911f46718703/8275a/prilis_vela_balonov1_a62e8f9e27_n67uTqPE7.jpg 1249w","sizes":"(min-width: 1249px) 1249px, 100vw"},"sources":[{"srcSet":"/static/ec6a491d7c06ef45ff20911f46718703/4f44e/prilis_vela_balonov1_a62e8f9e27_n67uTqPE7.webp 312w,\n/static/ec6a491d7c06ef45ff20911f46718703/b4a05/prilis_vela_balonov1_a62e8f9e27_n67uTqPE7.webp 625w,\n/static/ec6a491d7c06ef45ff20911f46718703/0bfc0/prilis_vela_balonov1_a62e8f9e27_n67uTqPE7.webp 1249w","type":"image/webp","sizes":"(min-width: 1249px) 1249px, 100vw"}]},"width":1249,"height":833}}}},"localizations":{"data":[{"attributes":{"CustomField1Key":"Color correction","Description":"Two worlds, one evening and too many balloons. Eva's birthday celebration still lives in her memories. It changes over the years, deforms, leaves, and comes again. Will Eve finally find her peace?","Name":"Príliš veľa balónov"}}]}},{"Name":"Práskač","Description":"Aby se nešikovný duch naučil strašit, potřebuje najít sám sebe. Pak už jen stačí skočit do toho po hlavě... a to doslova.","DirectedBy":"Patrik Trachtulec, Viktor Strmiska, Šárka Portešová, Samuel Šindler","Screenplay":"Šárka Portešová, Viktor Strmiska","Editing":"Samuel Šindler, Viktor Strmiska","Animation":null,"SoundDesign":"Samuel Šindler, Viktor Strmiska","VideoLink":"https://www.youtube.com/watch?v=B-XHKpdvtDI&list=PLeA0l0ge8ljgj_t9lsC4OMfhdMtVzJQhv&index=9&pp=sAQB","Music":null,"Cast":"Petr Veselka, Samuel Štěpán, Eliška Jedličková, Jonáš Rosecký, Pavol Ulbrich, Viktor Strmiska","ExecutiveProducer":"Šárka Portešová","Effects":null,"CustomField1Key":"Námět","CustomField1Value":"Patrik Trachtulec, Viktor Strmiska, Šárka Portešová, Samuel Šindler","Index":60,"ShowVideoLink":true,"Image":{"localFile":{"childImageSharp":{"gatsbyImageData":{"layout":"constrained","backgroundColor":"#886858","images":{"fallback":{"src":"/static/7122700ccbf7636a1a6db270ca5b88b8/9e88c/praskac_fb192f671c_Xglkn1bdn.jpg","srcSet":"/static/7122700ccbf7636a1a6db270ca5b88b8/efbbe/praskac_fb192f671c_Xglkn1bdn.jpg 447w,\n/static/7122700ccbf7636a1a6db270ca5b88b8/f69c5/praskac_fb192f671c_Xglkn1bdn.jpg 895w,\n/static/7122700ccbf7636a1a6db270ca5b88b8/9e88c/praskac_fb192f671c_Xglkn1bdn.jpg 1789w","sizes":"(min-width: 1789px) 1789px, 100vw"},"sources":[{"srcSet":"/static/7122700ccbf7636a1a6db270ca5b88b8/46df9/praskac_fb192f671c_Xglkn1bdn.webp 447w,\n/static/7122700ccbf7636a1a6db270ca5b88b8/83b15/praskac_fb192f671c_Xglkn1bdn.webp 895w,\n/static/7122700ccbf7636a1a6db270ca5b88b8/4eb51/praskac_fb192f671c_Xglkn1bdn.webp 1789w","type":"image/webp","sizes":"(min-width: 1789px) 1789px, 100vw"}]},"width":1789,"height":1193}}}},"localizations":{"data":[{"attributes":{"CustomField1Key":"Theme","Description":"In order to learn to scare, an awkward spirit needs to find itself. Then all you have to do is jump head-on ... literally.","Name":"Práskač"}}]}}]}]}},"pageContext":{"lang":"cs"}},
    "staticQueryHashes": ["2841541544","3626529835","3831893114"]}