{
    "componentChunkName": "component---src-templates-jury-tsx",
    "path": "/jury",
    "result": {"data":{"allStrapiJury":{"nodes":[{"Name":"Petr Sojka","Photo":{"localFile":{"childImageSharp":{"gatsbyImageData":{"layout":"constrained","backgroundColor":"#281818","images":{"fallback":{"src":"/static/93d4ea6e5a275e347c9a4651fd03ddc7/8414e/sojka_ebf53f0_743e05b811_Cjr0UC6J1.jpg","srcSet":"/static/93d4ea6e5a275e347c9a4651fd03ddc7/134be/sojka_ebf53f0_743e05b811_Cjr0UC6J1.jpg 156w,\n/static/93d4ea6e5a275e347c9a4651fd03ddc7/248cc/sojka_ebf53f0_743e05b811_Cjr0UC6J1.jpg 313w,\n/static/93d4ea6e5a275e347c9a4651fd03ddc7/8414e/sojka_ebf53f0_743e05b811_Cjr0UC6J1.jpg 625w","sizes":"(min-width: 625px) 625px, 100vw"},"sources":[{"srcSet":"/static/93d4ea6e5a275e347c9a4651fd03ddc7/d1e3d/sojka_ebf53f0_743e05b811_Cjr0UC6J1.webp 156w,\n/static/93d4ea6e5a275e347c9a4651fd03ddc7/f7ab9/sojka_ebf53f0_743e05b811_Cjr0UC6J1.webp 313w,\n/static/93d4ea6e5a275e347c9a4651fd03ddc7/c3c5b/sojka_ebf53f0_743e05b811_Cjr0UC6J1.webp 625w","type":"image/webp","sizes":"(min-width: 625px) 625px, 100vw"}]},"width":625,"height":625}}}},"Description":"Zakladatel tradice a ředitel Filmových festivalů Fakulty informatiky MU, pedagog předmětů FI MU, ve kterých studenti Filmový festival produkují, proděkan Fakulty informatiky MU.","localizations":{"data":[{"attributes":{"Description":"Founder of tradition and director of Film Festivals of the Faculty of Informatics, MU, teacher of FI MU subjects in which students produce the Film Festival, Vice-Dean of the Faculty of Informatics, MU."}}]}},{"Name":"Jiří Vanýsek st.","Photo":{"localFile":{"childImageSharp":{"gatsbyImageData":{"layout":"constrained","backgroundColor":"#182838","images":{"fallback":{"src":"/static/5d37ee82709bc04d0427b1b4e0d9ad2d/df7db/5198_portrait_present_2_7ee76167e5_o3BAc7-2Z.jpg","srcSet":"/static/5d37ee82709bc04d0427b1b4e0d9ad2d/a386b/5198_portrait_present_2_7ee76167e5_o3BAc7-2Z.jpg 380w,\n/static/5d37ee82709bc04d0427b1b4e0d9ad2d/f7fe0/5198_portrait_present_2_7ee76167e5_o3BAc7-2Z.jpg 760w,\n/static/5d37ee82709bc04d0427b1b4e0d9ad2d/df7db/5198_portrait_present_2_7ee76167e5_o3BAc7-2Z.jpg 1519w","sizes":"(min-width: 1519px) 1519px, 100vw"},"sources":[{"srcSet":"/static/5d37ee82709bc04d0427b1b4e0d9ad2d/f7606/5198_portrait_present_2_7ee76167e5_o3BAc7-2Z.webp 380w,\n/static/5d37ee82709bc04d0427b1b4e0d9ad2d/1bd24/5198_portrait_present_2_7ee76167e5_o3BAc7-2Z.webp 760w,\n/static/5d37ee82709bc04d0427b1b4e0d9ad2d/26c43/5198_portrait_present_2_7ee76167e5_o3BAc7-2Z.webp 1519w","type":"image/webp","sizes":"(min-width: 1519px) 1519px, 100vw"}]},"width":1519,"height":2000.0000000000002}}}},"Description":"Televizní režisér a scénárista několika desítek filmů ČT, pedagog JAMU a Filmové školy Zlín.","localizations":{"data":[{"attributes":{"Description":"Television director and screenwriter of several dozen films by the Czech Television, teacher at JAMU and the Zlín Film School."}}]}},{"Name":"Kamila Zlatušková","Photo":{"localFile":{"childImageSharp":{"gatsbyImageData":{"layout":"constrained","backgroundColor":"#080808","images":{"fallback":{"src":"/static/dbd0dd0111ef66becc0915ecda2145d4/7aaca/zlatuskova_e12ee82222_UD5P8XTy9.jpg","srcSet":"/static/dbd0dd0111ef66becc0915ecda2145d4/53451/zlatuskova_e12ee82222_UD5P8XTy9.jpg 238w,\n/static/dbd0dd0111ef66becc0915ecda2145d4/a4943/zlatuskova_e12ee82222_UD5P8XTy9.jpg 476w,\n/static/dbd0dd0111ef66becc0915ecda2145d4/7aaca/zlatuskova_e12ee82222_UD5P8XTy9.jpg 952w","sizes":"(min-width: 952px) 952px, 100vw"},"sources":[{"srcSet":"/static/dbd0dd0111ef66becc0915ecda2145d4/5e103/zlatuskova_e12ee82222_UD5P8XTy9.webp 238w,\n/static/dbd0dd0111ef66becc0915ecda2145d4/774f7/zlatuskova_e12ee82222_UD5P8XTy9.webp 476w,\n/static/dbd0dd0111ef66becc0915ecda2145d4/2c6b8/zlatuskova_e12ee82222_UD5P8XTy9.webp 952w","type":"image/webp","sizes":"(min-width: 952px) 952px, 100vw"}]},"width":952,"height":952}}}},"Description":"Filmová producentka a režisérka, pedagožka FAMU, ředitelka festivalu Serial Killer.","localizations":{"data":[{"attributes":{"Description":"Film producer and director, FAMU teacher, director of the Serial Killer festival."}}]}},{"Name":"Kristýna Bartošová","Photo":{"localFile":{"childImageSharp":{"gatsbyImageData":{"layout":"constrained","backgroundColor":"#383848","images":{"fallback":{"src":"/static/b3164ef07d7619fab72e4dddcad9bf03/1628f/bartosova_c433a82_84cea17575_hGkTL4iM2.jpg","srcSet":"/static/b3164ef07d7619fab72e4dddcad9bf03/392f8/bartosova_c433a82_84cea17575_hGkTL4iM2.jpg 141w,\n/static/b3164ef07d7619fab72e4dddcad9bf03/fa657/bartosova_c433a82_84cea17575_hGkTL4iM2.jpg 281w,\n/static/b3164ef07d7619fab72e4dddcad9bf03/1628f/bartosova_c433a82_84cea17575_hGkTL4iM2.jpg 562w","sizes":"(min-width: 562px) 562px, 100vw"},"sources":[{"srcSet":"/static/b3164ef07d7619fab72e4dddcad9bf03/9b85c/bartosova_c433a82_84cea17575_hGkTL4iM2.webp 141w,\n/static/b3164ef07d7619fab72e4dddcad9bf03/a37a7/bartosova_c433a82_84cea17575_hGkTL4iM2.webp 281w,\n/static/b3164ef07d7619fab72e4dddcad9bf03/71f58/bartosova_c433a82_84cea17575_hGkTL4iM2.webp 562w","type":"image/webp","sizes":"(min-width: 562px) 562px, 100vw"}]},"width":562,"height":562}}}},"Description":"Režisérka, scénáristka, kameramanka, stříhačka i herečka a producentka, která točí dokumentární filmy, taneční videa, videa pro výstavy a tvoří videoinstalace.","localizations":{"data":[{"attributes":{"Description":"Director, screenwriter, cinematographer, editor and actress, who makes documentaries, dance videos, videos for exhibitions and creates video installations."}}]}},{"Name":"Robert Král","Photo":{"localFile":{"childImageSharp":{"gatsbyImageData":{"layout":"constrained","backgroundColor":"#080808","images":{"fallback":{"src":"/static/21937253ddf5383027304977063b9795/77423/kral_286b9eb_8ad8c183d4_Zo42dvxSI.jpg","srcSet":"/static/21937253ddf5383027304977063b9795/c5eb8/kral_286b9eb_8ad8c183d4_Zo42dvxSI.jpg 49w,\n/static/21937253ddf5383027304977063b9795/86e99/kral_286b9eb_8ad8c183d4_Zo42dvxSI.jpg 98w,\n/static/21937253ddf5383027304977063b9795/77423/kral_286b9eb_8ad8c183d4_Zo42dvxSI.jpg 195w","sizes":"(min-width: 195px) 195px, 100vw"},"sources":[{"srcSet":"/static/21937253ddf5383027304977063b9795/f2d16/kral_286b9eb_8ad8c183d4_Zo42dvxSI.webp 49w,\n/static/21937253ddf5383027304977063b9795/f1ce5/kral_286b9eb_8ad8c183d4_Zo42dvxSI.webp 98w,\n/static/21937253ddf5383027304977063b9795/fd1d9/kral_286b9eb_8ad8c183d4_Zo42dvxSI.webp 195w","type":"image/webp","sizes":"(min-width: 195px) 195px, 100vw"}]},"width":195,"height":195}}}},"Description":"Impresário divadla Napříč.cz, externí pedagog předmětů Produkce audiovizuálního díla a Základy filmové řeči FI MU.","localizations":{"data":[{"attributes":{"Description":"Impresario of the theatre Napříč.cz, external teacher of the subjects Production of Audiovisual Works and Basics of Film Speech FI MU."}}]}},{"Name":"Lukáš Horáček","Photo":{"localFile":{"childImageSharp":{"gatsbyImageData":{"layout":"constrained","backgroundColor":"#080808","images":{"fallback":{"src":"/static/1be98d52741d2b2e34d858d158705468/cf4bc/Lukas_Horacek_904fd2abbe_nS5JLe2vM.jpg","srcSet":"/static/1be98d52741d2b2e34d858d158705468/2f584/Lukas_Horacek_904fd2abbe_nS5JLe2vM.jpg 1740w,\n/static/1be98d52741d2b2e34d858d158705468/fc632/Lukas_Horacek_904fd2abbe_nS5JLe2vM.jpg 3480w,\n/static/1be98d52741d2b2e34d858d158705468/cf4bc/Lukas_Horacek_904fd2abbe_nS5JLe2vM.jpg 6960w","sizes":"(min-width: 6960px) 6960px, 100vw"},"sources":[{"srcSet":"/static/1be98d52741d2b2e34d858d158705468/ac723/Lukas_Horacek_904fd2abbe_nS5JLe2vM.webp 1740w,\n/static/1be98d52741d2b2e34d858d158705468/79fee/Lukas_Horacek_904fd2abbe_nS5JLe2vM.webp 3480w,\n/static/1be98d52741d2b2e34d858d158705468/e1a8e/Lukas_Horacek_904fd2abbe_nS5JLe2vM.webp 6960w","type":"image/webp","sizes":"(min-width: 6960px) 6960px, 100vw"}]},"width":6960,"height":4640}}}},"Description":"Nezávislý filmař, herec a režisér se zkušenostmi ze studia činoherního herectví na JAMU, přestože se filmem neživí, filmová tvorba má v jeho životě nezastupitelné místo, absolvent LEMMA.","localizations":{"data":[{"attributes":{"Description":"Independent film maker, actor and director with experience from dramatic acting JAMU studio, even though film making is not his main profession, it is still an important part of his life, LEMMA graduand."}}]}},{"Name":"Lukáš Gregor","Photo":{"localFile":{"childImageSharp":{"gatsbyImageData":{"layout":"constrained","backgroundColor":"#383838","images":{"fallback":{"src":"/static/9512c024cfb9103703f0e3c910d0121e/0fdf4/gregor_be230cf_829326ff8a_GMrwu3v4o.jpg","srcSet":"/static/9512c024cfb9103703f0e3c910d0121e/91a6d/gregor_be230cf_829326ff8a_GMrwu3v4o.jpg 75w,\n/static/9512c024cfb9103703f0e3c910d0121e/96deb/gregor_be230cf_829326ff8a_GMrwu3v4o.jpg 150w,\n/static/9512c024cfb9103703f0e3c910d0121e/0fdf4/gregor_be230cf_829326ff8a_GMrwu3v4o.jpg 300w","sizes":"(min-width: 300px) 300px, 100vw"},"sources":[{"srcSet":"/static/9512c024cfb9103703f0e3c910d0121e/18188/gregor_be230cf_829326ff8a_GMrwu3v4o.webp 75w,\n/static/9512c024cfb9103703f0e3c910d0121e/c65bc/gregor_be230cf_829326ff8a_GMrwu3v4o.webp 150w,\n/static/9512c024cfb9103703f0e3c910d0121e/078c3/gregor_be230cf_829326ff8a_GMrwu3v4o.webp 300w","type":"image/webp","sizes":"(min-width: 300px) 300px, 100vw"}]},"width":300,"height":300}}}},"Description":"Vedoucí Ateliéru animované tvorby na fakultě multimediálních komunikací UTB ve Zlíně, proděkan pro tvůrčí činnost na zlínské FMK.","localizations":{"data":[{"attributes":{"Description":"Lukáš Gregor leads the Studio of Animation at the Faculty of Multimedia Communications of TBU in Zlín and works there as a vice-dean for creative activities."}}]}}]}},"pageContext":{"lang":"cs"}},
    "staticQueryHashes": ["2841541544","3626529835","3831893114"]}