{
    "componentChunkName": "component---src-templates-page-tsx",
    "path": "/en/registration",
    "result": {"data":{"strapiPage":{"slug":"/registration","Content":{"data":{"childMdx":{}}},"localizations":{"data":[{"attributes":{"Title":"Film Registration"}}]},"childStrapiPageEnContent":{"childMdx":{"body":"var _excluded = [\"components\"];\n\nfunction _extends() { _extends = Object.assign || function (target) { for (var i = 1; i < arguments.length; i++) { var source = arguments[i]; for (var key in source) { if (Object.prototype.hasOwnProperty.call(source, key)) { target[key] = source[key]; } } } return target; }; return _extends.apply(this, arguments); }\n\nfunction _objectWithoutProperties(source, excluded) { if (source == null) return {}; var target = _objectWithoutPropertiesLoose(source, excluded); var key, i; if (Object.getOwnPropertySymbols) { var sourceSymbolKeys = Object.getOwnPropertySymbols(source); for (i = 0; i < sourceSymbolKeys.length; i++) { key = sourceSymbolKeys[i]; if (excluded.indexOf(key) >= 0) continue; if (!Object.prototype.propertyIsEnumerable.call(source, key)) continue; target[key] = source[key]; } } return target; }\n\nfunction _objectWithoutPropertiesLoose(source, excluded) { if (source == null) return {}; var target = {}; var sourceKeys = Object.keys(source); var key, i; for (i = 0; i < sourceKeys.length; i++) { key = sourceKeys[i]; if (excluded.indexOf(key) >= 0) continue; target[key] = source[key]; } return target; }\n\n/* @jsxRuntime classic */\n\n/* @jsx mdx */\nvar _frontmatter = {};\n\nvar makeShortcode = function makeShortcode(name) {\n  return function MDXDefaultShortcode(props) {\n    console.warn(\"Component \" + name + \" was not imported, exported, or provided by MDXProvider as global scope\");\n    return mdx(\"div\", props);\n  };\n};\n\nvar Br = makeShortcode(\"Br\");\nvar Button = makeShortcode(\"Button\");\nvar layoutProps = {\n  _frontmatter: _frontmatter\n};\nvar MDXLayout = \"wrapper\";\nreturn function MDXContent(_ref) {\n  var components = _ref.components,\n      props = _objectWithoutProperties(_ref, _excluded);\n\n  return mdx(MDXLayout, _extends({}, layoutProps, props, {\n    components: components,\n    mdxType: \"MDXLayout\"\n  }), mdx(\"h3\", null, \"Film submissions to the 22nd FFFI MU \", mdx(Br, {\n    mdxType: \"Br\"\n  })), mdx(\"p\", null, \"Do you want to make films? Do you want to shine? Do you want to show your point of view? Do you have an idea and you just need a nudge? \", mdx(Br, {\n    mdxType: \"Br\"\n  })), mdx(\"p\", null, \"This is your unique opportunity! Make a short film, submit it to the 22nd Film Festival of the Faculty of Informatics of Masaryk University and win. Deadline? April 19, 2022! Don't miss it! \", mdx(Br, {\n    mdxType: \"Br\"\n  })), mdx(\"p\", null, \"With us, you can show your work in front of hundreds of people, and if your movies impress the jury or the audience, you will be awarded valuable prizes. \", mdx(Br, {\n    mdxType: \"Br\"\n  })), mdx(\"p\", null, \"Are you ours now?\"), mdx(Button, {\n    mdxType: \"Button\"\n  }, \"Registration has ended\"), mdx(\"p\", null, \"Are you hesitant and need more technical and organizational details? Read the rules \\uD83D\\uDC47\\uD83C\\uDFFB (in case of problems with submission, please contact our friendly staff at\\xA0\", mdx(\"a\", {\n    parentName: \"p\",\n    \"href\": \"mailto:festival-tech@fi.muni.cz\"\n  }, \"festival-tech@fi.muni.cz\"), \") \", mdx(Br, {\n    mdxType: \"Br\"\n  })), mdx(\"h3\", null, \"Rules of the 22nd FFFI MU \", mdx(Br, {\n    mdxType: \"Br\"\n  })), mdx(\"p\", null, \"The Film Festival of the Faculty of Informatics of Masaryk University is a festival of amateur films. The festival will take place on the evening of May 20, 2022 (Friday) from 7 pm at Faculty of Informatics MU, University Cinema Scala and also will be streamed online. \", mdx(Br, {\n    mdxType: \"Br\"\n  })), mdx(\"h4\", null, \"Conditions for film submission: \", mdx(Br, {\n    mdxType: \"Br\"\n  })), mdx(\"ol\", null, mdx(\"li\", {\n    parentName: \"ol\"\n  }, \"Amateur audiovisual works of any genre and form (played, animated) up to 8\\xA0minutes can be accepted into the competition\"), mdx(\"li\", {\n    parentName: \"ol\"\n  }, \"Filmmakers must not be professional creators of audiovisual art\"), mdx(\"li\", {\n    parentName: \"ol\"\n  }, \"The film must not be older than 3\\xA0years\"), mdx(\"li\", {\n    parentName: \"ol\"\n  }, \"The image must not infringe any copyright\"), mdx(\"li\", {\n    parentName: \"ol\"\n  }, \"Only one of the authors of a\\xA0film can submit it, with consent of all co-authors of the work \", mdx(Br, {\n    mdxType: \"Br\"\n  }))), mdx(\"p\", null, mdx(\"strong\", {\n    parentName: \"p\"\n  }, \"Submission is free.\"), \" \", mdx(Br, {\n    mdxType: \"Br\"\n  })), mdx(\"h4\", null, \"Competing films will be evaluated in two ways: \", mdx(Br, {\n    mdxType: \"Br\"\n  })), mdx(\"u\", null, \"By voting of the expert jury\"), mdx(\"u\", null, \"Viewers' poll\"), \" \", mdx(Br, {\n    mdxType: \"Br\"\n  }), mdx(\"p\", null, \"The images must be submitted by April 19th, 2022 using the online form via link above. Each submission must have a\\xA0fitting title. The application must also include an\\xA0accompanying text with a\\xA0brief description of the film. Festival organisers reserve the right to exclude contributions that do not meet the above conditions or whose content violates Czech legislation, without passing on to the Programme Committee for consideration. Each author/collective of authors can submit a\\xA0maximum of three separate films for the festival. The selection of films for the screening and dramaturgy of the evening will be determined by the director of the festival with teachers of the course\\xA0\", mdx(\"a\", {\n    parentName: \"p\",\n    \"href\": \"https://is.muni.cz/predmet/fi/jaro2022/PV113\"\n  }, \"PV113 Audiovisual works\"), \". This internal jury is not the same as the expert jury that will evaluate the festival films. There is no legal entitlement to inclusion in the festival programme.\", mdx(Br, {\n    mdxType: \"Br\"\n  })), mdx(\"p\", null, \"The authors will be informed of the acceptance or non-acceptance of the work for the screening at the festival through the contact provided in the application form. The films selected by the Programme Committee will be available on YouTube and will be screened in Brno cinemas during the 22nd Film Festival of the Faculty of Informatics of Masaryk University. \", mdx(Br, {\n    mdxType: \"Br\"\n  })), mdx(\"p\", null, \"The contestant is not legally entitled to win the contest and non-monetary prizes cannot be awarded in any alternative form including paying out their value in money. The prizes will be given on the basis of the author's mutual agreement with the organizers of the 22nd Film Festival of the Faculty of Informatics MU. \", mdx(Br, {\n    mdxType: \"Br\"\n  })), mdx(\"p\", null, \"By submitting the audiovisual work (film), the applicant declares, that he has the right to use the work in this way and that he has the rights to the works used in the film. \", mdx(Br, {\n    mdxType: \"Br\"\n  })), mdx(\"p\", null, \"By submitting the film, the applicant provides the organizer with a free license to screen the work at the Film Festival of the Faculty of Informatics MU. The author also gives MU a license to store a copy to screen the work in the course of teaching and for promotion of FFFI MU and in private screenings for the MU academic community. Territorial and quantity extent of the licence is unlimited. The permissions are granted for the entire duration of the corresponding rights. \", mdx(Br, {\n    mdxType: \"Br\"\n  })), mdx(\"h4\", null, \"Financial awards for the best films according to the voting of the expert jury: \", mdx(Br, {\n    mdxType: \"Br\"\n  })), mdx(\"p\", null, \"1st place \\u2013 5000 CZK\"), mdx(\"p\", null, \"2nd place \\u2013 3000 CZK\"), mdx(\"p\", null, \"3rd place \\u2013 2000 CZK \", mdx(Br, {\n    mdxType: \"Br\"\n  })), mdx(\"h4\", null, \"Technical specifications for films \", mdx(Br, {\n    mdxType: \"Br\"\n  })), mdx(\"ul\", null, mdx(\"li\", {\n    parentName: \"ul\"\n  }, mdx(\"p\", {\n    parentName: \"li\"\n  }, \"Video format: H.264 (recommended), MPEG-4 Part\\xA02\")), mdx(\"li\", {\n    parentName: \"ul\"\n  }, mdx(\"p\", {\n    parentName: \"li\"\n  }, \"Audio format: WAV, FLAC, MP3 (bitrate for MP3 at least 192\\xA0kbps)\")), mdx(\"li\", {\n    parentName: \"ul\"\n  }, mdx(\"p\", {\n    parentName: \"li\"\n  }, \"Frame rate: 24 fps\")), mdx(\"li\", {\n    parentName: \"ul\"\n  }, mdx(\"p\", {\n    parentName: \"li\"\n  }, \"Subtitles: english in SRT or ASS format\")), mdx(\"li\", {\n    parentName: \"ul\"\n  }, mdx(\"p\", {\n    parentName: \"li\"\n  }, \"Containers: MP4 (recommended), M4V, MKV\")), mdx(\"li\", {\n    parentName: \"ul\"\n  }, mdx(\"p\", {\n    parentName: \"li\"\n  }, \"Resolution: width at least FullHD (i.e. 1920)\")), mdx(\"li\", {\n    parentName: \"ul\"\n  }, mdx(\"p\", {\n    parentName: \"li\"\n  }, \"Bitrate: 10\\xA0-\\xA020\\xA0Mbps\")), mdx(\"li\", {\n    parentName: \"ul\"\n  }, mdx(\"p\", {\n    parentName: \"li\"\n  }, \"Volume: max. -3dB\")), mdx(\"li\", {\n    parentName: \"ul\"\n  }, mdx(\"p\", {\n    parentName: \"li\"\n  }, \"Size: max. 2GB \", mdx(Br, {\n    mdxType: \"Br\"\n  })))), mdx(\"h4\", null, \"Recommendation: \", mdx(Br, {\n    mdxType: \"Br\"\n  })), mdx(\"ul\", null, mdx(\"li\", {\n    parentName: \"ul\"\n  }, mdx(\"p\", {\n    parentName: \"li\"\n  }, \"Make sure that YouTube doesn't detect copyright infringement in your movie.\")), mdx(\"li\", {\n    parentName: \"ul\"\n  }, mdx(\"p\", {\n    parentName: \"li\"\n  }, \"If you need to prove to the YouTube platform that you hold the license rights to the materials used, please contact us at \", mdx(\"a\", {\n    parentName: \"p\",\n    \"href\": \"mailto:festival-tech@fi.muni.cz\"\n  }, \"festival-tech@fi.muni.cz\"), \".\"))));\n}\n;\nMDXContent.isMDXComponent = true;"}}}},"pageContext":{"lang":"en","id":"535a6a2f-7a4e-52af-b4ad-8c4baaf2a428","en":true}},
    "staticQueryHashes": ["2841541544","3626529835","3831893114"]}