<svg width="64" height="65" viewBox="0 0 64 65" fill="none" xmlns="http://www.w3.org/2000/svg">
    <path
        d="M32.0563 42.1806H31.9626C26.4746 42.1806 21.9398 37.6567 21.9398 32.0641C21.9398 26.4714 26.4746 21.9475 31.9626 21.9475H32.0563C37.5497 21.9475 42.1729 26.5707 42.1729 32.0641C42.1729 37.5575 37.5497 42.1806 32.0563 42.1806Z"
        stroke="url(#paint0_linear_189_140)" stroke-width="2" />
    <path
        d="M1 32.064C1 14.9387 14.8837 1.06396 32 1.06396C49.1255 1.06396 63 14.9385 63 32.064C63 49.1895 49.1255 63.064 32 63.064C14.8745 63.064 1 49.1895 1 32.064Z"
        stroke="url(#paint1_linear_189_140)" stroke-width="2" />
    <path
        d="M51 41.2502C51 46.6311 46.574 51.064 41.211 51.064H22.7889C17.426 51.064 13 46.6311 13 41.2502V22.8778C13 17.4968 17.426 13.064 22.7889 13.064H41.211C46.574 13.064 51 17.4969 51 22.8778V41.2502Z"
        stroke="url(#paint2_linear_189_140)" stroke-width="2" />
    <path
        d="M41.25 21.064C41.25 22.0023 41.9822 22.814 43 22.814C43.9582 22.814 44.75 22.0222 44.75 21.064C44.75 20.1038 43.9523 19.314 43 19.314C41.9822 19.314 41.25 20.1256 41.25 21.064Z"
        stroke="url(#paint3_linear_189_140)" stroke-width="1.5" />
    <defs>
        <linearGradient id="paint0_linear_189_140" x1="24.1984" y1="39.922" x2="39.9175"
            y2="24.2029" gradientUnits="userSpaceOnUse">
            <stop stop-color="#69C8C6" />
            <stop offset="0.45" stop-color="#CF8BBC" />
            <stop offset="1" stop-color="#3D5EAB" />
        </linearGradient>
        <linearGradient id="paint1_linear_189_140" x1="9.38027" y1="54.6837" x2="54.629" y2="9.435"
            gradientUnits="userSpaceOnUse">
            <stop stop-color="#69C8C6" />
            <stop offset="0.45" stop-color="#CF8BBC" />
            <stop offset="1" stop-color="#3D5EAB" />
        </linearGradient>
        <linearGradient id="paint2_linear_189_140" x1="17.8627" y1="46.2013" x2="46.1431"
            y2="17.9209" gradientUnits="userSpaceOnUse">
            <stop stop-color="#69C8C6" />
            <stop offset="0.45" stop-color="#CF8BBC" />
            <stop offset="1" stop-color="#3D5EAB" />
        </linearGradient>
        <linearGradient id="paint3_linear_189_140" x1="23" y1="41.064" x2="43.7072" y2="20.3568"
            gradientUnits="userSpaceOnUse">
            <stop stop-color="#69C8C6" />
            <stop offset="0.45" stop-color="#CF8BBC" />
            <stop offset="1" stop-color="#3D5EAB" />
        </linearGradient>
    </defs>
</svg>
    